[
    {
        "currency_guid": "2b23f821dd7c47318cb1ad64c4f9745f",
        "description": "txfer",
        "enter_date": "2018-11-01 14:59:42",
        "guid": "d212590ed8f44359ad3701a56f448368",
        "num": "",
        "post_date": "2018-11-01 10:59:00"
    }
]
